…
> data$data
# A tibble: 721 x 12
    Code Dong   Trade_year Trade_month Trade_day consYear  Price addCode Name                       excArea Floor name          
   <int> <chr>       <int>       <int>     <int>    <int>  <dbl> <chr>   <chr>                      <chr>   <chr> <chr>         
 1 11110 누상동       2018           1        19     1999  17900 40      청호그린빌                 29.76   4     서울특별시 종로구~
 2 11110 누상동       2018           1        19     1999  17900 40      청호그린빌                 29.76   3     서울특별시 종로구~
 3 11110 사직동       2018           1         9     2008 110000 9       광화문풍림스페이스본(101동~105동)~ 146.92  9     서울특별시 종로구~
 4 11110 사직동       2018           1        22     2008  89000 9       광화문풍림스페이스본(101동~105동)~ 94.51   6     서울특별시 종로구~
 5 11110 사직동       2018           1        23     2008  85000 9       광화문풍림스페이스본(101동~105동)~ 95.88   2     서울특별시 종로구~
 6 11110 사직동       2018           1        24     2008 100000 9       광화문풍림스페이스본(101동~105동)~ 108.55  1     서울특별시 종로구~
 7 11110 사직동       2018           1        25     2008  85000 9       광화문풍림스페이스본(101동~105동)~ 94.51   3     서울특별시 종로구~
 8 11110 사직동       2018           1        27     2008  91000 9       광화문풍림스페이스본(101동~105동)~ 94.51   13    서울특별시 종로구~
 9 11110 사직동       2018           1        30     2008 132000 9       광화문풍림스페이스본(101동~105동)~ 147.31  6     서울특별시 종로구~
10 11110 사직동       2018           1        30     2008  85000 9       광화문풍림스페이스본(101동~105동)~ 94.51   5     서울특별시 종로구~
# ... with 711 more rows
```
…
``` 
# example
> key <- 'your key'
> data <- molitCommerce(key = key, year = 2018, month = 1:6, 
                        localeName = enc2utf8("수원"), slow = F, viz = T)
> data
# A tibble: 955 x 15
   code  gu    dong  landUsage tradeYear tradeMonth tradeDay price consYear consUsage consType consFloor consShare excArea
   <chr> <chr> <chr> <chr>         <int>      <int>    <int> <chr>    <int> <chr>     <chr>        <int> <lgl>     <chr>  
 1 41111 수원장안~ 파장동~ 제1종일반주거~      2018          1        4 32,0~     2016 제2종근린생활~ 집합             1 NA        103    
 2 41111 수원장안~ 정자동~ 준주거         2018          1        3 32,7~     2002 제2종근린생활~ 집합            NA NA        165    
 3 41111 수원장안~ 정자동~ 제2종일반주거~      2018          1       19 27,0~     2016 제1종근린생활~ 집합             2 NA        131    
 4 41111 수원장안~ 율전동~ 제2종일반주거~      2018          1        3 8,700     2017 제2종근린생활~ 집합             1 NA        41     
 5 41111 수원장안~ 율전동~ 일반상업       2018          1       22 27,5~     2005 제1종근린생활~ 집합            NA NA        86     
 6 41111 수원장안~ 율전동~ 일반상업       2018          1       22 27,5~     2005 제1종근린생활~ 집합            NA NA        86     
 7 41111 수원장안~ 율전동~ 일반상업       2018          1       23 24,5~     2005 제2종근린생활~ 집합            NA NA        86     
 8 41111 수원장안~ 율전동~ 제1종일반주거~      2018          1       23 11,0~     2005 제1종근린생활~ 일반            NA NA        12     
 9 41111 수원장안~ 천천동~ 제2종일반주거~      2018          1       19 5,950     1998 제1종근린생활~ 집합             1 NA        20     
10 41111 수원장안~ 천천동~ 제2종일반주거~      2018          1       22 10,3~     2009 교육연구  집합             4 NA        30     
# ... with 945 more rows, and 1 more variable: grdArea <lgl>
```
…
``` 
# example
> key <- 'your key'
> data <- molitLand(key = key, year = 2018, month = 1:6, 
                        localeName = enc2utf8("수원"), slow = F, viz = T)
> data
# A tibble: 3,264 x 11
   code  gu     dong    tradeYear tradeMonth tradeDay tradeType  price landUsage area  type             
   <chr> <chr>  <chr>       <int>      <int>    <int> <lgl>      <dbl> <chr>     <chr> <chr>            
 1 11110 종로구 청운동       2018          1        3 NA        195300 대        379   제1종일반주거지역
 2 11110 종로구 누상동       2018          1       11 NA          2194 대        4     제2종일반주거지역
 3 11110 종로구 관훈동       2018          1        5 NA         45000 도로      118   일반상업지역     
 4 11110 종로구 삼청동       2018          1        3 NA         18847 대        25    제1종일반주거지역
 5 11110 종로구 삼청동       2018          1       25 NA         28998 대        21    제1종일반주거지역
 6 11110 종로구 이화동       2018          1       30 NA         55000 대        71    제3종일반주거지역
 7 11110 종로구 동숭동       2018          1       25 NA          6278 대        16    제2종일반주거지역
 8 11110 종로구 명륜2가      2018          1       29 NA           417 대        1     제3종일반주거지역
 9 11110 종로구 숭인동       2018          1       18 NA         30000 대        19    일반상업지역     
10 11110 종로구 숭인동       2018          1       18 NA         10000 대        8     일반상업지역     
# ... with 3,254 more rows
```
…
```
# example
> key <- 'your key'
> data <- kmaLifeIndex(key, localeName = c('수원', '용인'), type = "fp", slow = T)
> data$data$fp
# A tibble: 158 x 8
   idxCode type  locale     time                   d0    d1    d2 level
   <chr>   <chr> <chr>      <chr>               <dbl> <dbl> <dbl> <ord>
 1 A01_2   Fsn   4111100000 2019-08-23 06:00:00    25    31    34 safe 
 2 A01_2   Fsn   4111100000 2019-08-23 18:00:00    NA    31    39 NA   
 3 A01_2   Fsn   4111156000 2019-08-23 06:00:00    25    31    34 safe 
 4 A01_2   Fsn   4111156000 2019-08-23 18:00:00    NA    31    39 NA   
 5 A01_2   Fsn   4111156600 2019-08-23 06:00:00    25    31    34 safe 
 6 A01_2   Fsn   4111156600 2019-08-23 18:00:00    NA    31    39 NA   
 7 A01_2   Fsn   4111157100 2019-08-23 06:00:00    25    31    34 safe 
 8 A01_2   Fsn   4111157100 2019-08-23 18:00:00    NA    31    39 NA   
 9 A01_2   Fsn   4111157200 2019-08-23 06:00:00    25    31    34 safe 
10 A01_2   Fsn   4111157200 2019-08-23 18:00:00    NA    31    39 NA   
# ... with 148 more rows
```
…
```
# example
> key <- 'your key'
> data <- kmaHealthIndex(key, localeName = c('수원', '용인'), type = "possible", slow = T)
> names(data$data)
[1] "Asthma"    "Brain"    "Skin"    "FlowerWeeds"    "Infl" 
>
> data$data$Brain
# A tibble: 158 x 8
   idxCode type  locale     time                   d0    d1    d2 level 
   <chr>   <chr> <chr>      <chr>               <dbl> <dbl> <dbl> <ord> 
 1 D02     Brain 4111100000 2019-08-23 06:00:00     1     1     1 normal
 2 D02     Brain 4111100000 2019-08-23 18:00:00    NA     1     1 NA    
 3 D02     Brain 4111156000 2019-08-23 06:00:00     1     1     1 normal
 4 D02     Brain 4111156000 2019-08-23 18:00:00    NA     1     1 NA    
 5 D02     Brain 4111156600 2019-08-23 06:00:00     1     1     1 normal
 6 D02     Brain 4111156600 2019-08-23 18:00:00    NA     1     1 NA    
 7 D02     Brain 4111157100 2019-08-23 06:00:00     1     1     1 normal
 8 D02     Brain 4111157100 2019-08-23 18:00:00    NA     1     1 NA    
 9 D02     Brain 4111157200 2019-08-23 06:00:00     1     1     1 normal
10 D02     Brain 4111157200 2019-08-23 18:00:00    NA     1     1 NA    
# ... with 148 more rows
```
…
```
# example
> key <- 'your key from data.kma.go.kr'
> data <- kmaASOS(key, branchCode = 'all', fromDate = as.Date('2019-08-19'), 
                  toDate = Sys.Date(), slow = T)
> data$data
# A tibble: 658 x 46
   date   brch brch_nme araPrs_avg arTmp_max arTmp_min cldAmt_avg dewTmp_avg ertTmp_0.5m_avg ertTmp_1.5m_avg ertTmp_10cm_avg
   <chr> <dbl> <chr>         <dbl>     <dbl>     <dbl>      <dbl>      <dbl>           <dbl>           <dbl>           <dbl>
 1 2019~    90 속초          1009.      27        20.6        4.3       20.2            NA              NA              NA  
 2 2019~    90 속초          1010.      28.4      21          4.9       21.2            NA              NA              NA  
 3 2019~    90 속초          1006.      27.5      20.7        8.4       21.7            NA              NA              NA  
 4 2019~    90 속초          1003.      29.3      22.4        7.6       19.9            NA              NA              NA  
 5 2019~    90 속초          1004.      30.4      22.4        2.9       16.3            NA              NA              NA  
 6 2019~    90 속초          1007.      28.2      21.3        5.6       18.2            NA              NA              NA  
 7 2019~    90 속초          1010.      27.6      20.3        5         20.4            NA              NA              NA  
 8 2019~    93 북춘천         999.      31.1      18.1        4.4       18.9            26.3            24.6            27.1
 9 2019~    93 북춘천        1000.      32.5      19.4        2.8       19.5            26.7            24.6            28.3
10 2019~    93 북춘천         998.      29.5      20.7        8.5       21.4            27.2            24.5            27.9
# ... with 648 more rows, and 35 more variables: ertTmp_1m_avg <dbl>, ertTmp_20cm_avg <dbl>, ertTmp_30cm_avg <dbl>,
#   ertTmp_3m_avg <dbl>, ertTmp_5cm_avg <dbl>, ertTmp_5m_avg <dbl>, extmSnw_day <dbl>, fogDur_sum <dbl>, frsSnw_day <dbl>,
#   frsSnw_sum <dbl>, grsSun_sum <dbl>, grsTmp_min <dbl>, hum_avg <dbl>, hum_min <dbl>, insWdSp_max <dbl>,
#   insWdSpDrc_max <dbl>, lrgEpr_sum <dbl>, rain_10mts_max <dbl>, rain_1hr_max <dbl>, rain_9_9 <dbl>, rain_sum <dbl>,
#   seaPrs_avg <dbl>, seaPrs_max <dbl>, seaPrs_min <dbl>, slr_1hr_max <dbl>, smlEpr_sum <dbl>, sunDur_sum <dbl>,
#   sunDurTm_sum <dbl>, surfTmp_avg <dbl>, ttlCld_avg <dbl>, vapPrs_avg <dbl>, wdRun_sum <dbl>, wdSp_avg <dbl>, wdSp_max <dbl>,
#   wdSpDrc_max <dbl>
```
…
```
# example
> key <- 'your key'
> data <- nhisDiseaseForcast(key, localeName = c("수원"), type = "All", slow = T)
> data$data
# A tibble: 462 x 5
   diss  date     locale cnt   risk 
   <chr> <chr>    <chr>  <chr> <chr>
 1 1     20191001 41111  2117  2    
 2 1     20191001 41113  2412  2    
 3 1     20191001 41115  1435  2    
 4 1     20191001 41117  2328  2    
 5 1     20191001 41131  1605  2    
 6 1     20191001 41133  1809  2    
 7 1     20191001 41135  3555  2    
 8 1     20191001 41150  3093  2    
 9 1     20191001 41171  1736  2    
10 1     20191001 41173  2481  2    
# ... with 452 more rows
…
> **4-1) [**의약품 부작용**](https://www.data.go.kr/dataset/15020627/openapi.do)(drugsSideEffect)**
> 
> 수요조사 결과에 따라 관심도가 높은 5대 질병(눈병, 천식, 감기, 피부염, 식중독)에 대한 위험도 및 예측 진료 건수 정보를 제공합니다. 다운로드되는 데이터의 변수가 많으므로 자세한 사항을 [링크](https://www.data.go.kr/dataset/15028050/openapi.do)의 참고문서로 확인하시기 바랍니다. 함수 실행 결과는 R의 data.frame 타입입니다. 함수에서 사용하는 argument는 다음과 같습니다.
> - key: (필수, 문자). 공공데이터 포털에서 발급받은 API 키

```
# example
> key <- 'your key'
> data <- drugsSideEffect(key)
> data
# A tibble: 54 x 7
   name_kor     name_eng    type  period               effect_kor            effect_eng                            etc          
   <chr>        <chr>       <chr> <chr>                <chr>                 <chr>                                 <chr>        
 1 이소니아지드 Isoniazide  ""    1989년 1월 ~ 2013년 6월~ 가려움증              Pruritus                              지속적 모니터링~
 2 이소니아지드 Isoniazide  ""    1989년 1월 ~ 2013년 6월~ 반점구진발진          Rash Maculo-Papular                   지속적 모니터링~
 3 프로포폴     Propofol    ""    1989년 1월 ~ 2013년 6월~ 사망                  Death                                 허가사항 변경
 4 프로포폴     Propofol    ""    1989년 1월 ~ 2013년 6월~ 약물남용              Drug Abuse                            허가사항 변경
 5 프로포폴     Propofol    ""    1989년 1월 ~ 2013년 6월~ 청색증                Cyanosis                              허가사항 변경
 6 프로포폴     Propofol    ""    1989년 1월 ~ 2013년 6월~ 상세불명의 지질대사이상~ Lipid Metabolism Disorder NOS         지속적 모니터링~
 7 졸피뎀       Zolpidem    ""    1989년 1월 ~ 2013년 6월~ 진전                  Tremor                                허가사항 변경
 8 졸피뎀       Zolpidem    ""    1989년 1월 ~ 2013년 6월~ 실신                  Syncope                               지속적 모니터링~
 9 리스페리돈   Risperidone ""    1989년 1월 ~ 2013년 6월~ 강박장애 (경구, 주사) Obsessive-compulsive Disorder (Oral,~ 지속적 모니터링~
10 리스페리돈   Risperidone ""    1989년 1월 ~ 2013년 6월~ 기억상실증 (경구)     Amnesia (Oral)                        지속적 모니터링~
# ... with 44 more rows
```

> **4-2) [**식품 영양성분**](https://www.data.go.kr/dataset/15020625/openapi.do)(nutriComponent)**
> 
> 식품의약품안전처에서 관리하는 식품 영양성분 데이터를 제공합니다. 다운로드되는 데이터의 변수가 많으므로 자세한 사항을 [링크](https://www.data.go.kr/dataset/15020625/openapi.do)의 참고문서로 확인하시기 바랍니다. 함수 실행 결과는 R의 data.frame 타입입니다. 함수에서 사용하는 argument는 다음과 같습니다.
> - key: (필수, 문자). 공공데이터 포털에서 발급받은 API 키
> - vebose: (옵션, T/F) 다운로드의 진행상황의 콘솔 출력여부. 기본값은 False

```
# example
> key <- 'your key'
> data <- nutriComponent(key, verbose = T)
  |==============================================================================================================| 100%
> 
> data
# A tibble: 22,629 x 13
   name_kor serving_wt  kcal carbohydrate protein   fat sugar sodium cholesterol saturated_fatty~ trans_fatty_acid  year
   <chr>         <dbl> <dbl>        <dbl>   <dbl> <dbl> <dbl>  <dbl>       <dbl>            <dbl>            <dbl> <dbl>
 1 고량미,알곡~        100   349         67.8    10.1   3.7    NA     NA          NA            NA                  NA  2001
 2 겉귀리,생것~        100   373         73.5    11.4   3.7    NA      2           0            NA                  NA  2011
 3 겉귀리,생것~        100   332         73.5    11.4   3.7    NA      2          NA            NA                  NA  2017
 4 쌀귀리,생것~        100   371         70.4    14.3   3.8    NA      3          NA            NA                  NA  2011
 5 쌀귀리,생것~        100   334         70.4    14.3   3.8    NA      3          NA            NA                  NA  2017
 6 오트밀          100   382         64.9    13.2   8.2    NA      4           0            NA                  NA  2011
 7 오트밀          100   348         64.9    13.2   8.2    NA      4          NA            NA                  NA  2017
 8 기장,생것~        100   367         74.6    11.2   1.9    NA      6           0            NA                  NA  2011
 9 기장,생것~        100   360         74.6    11.2   1.9    NA      6          NA            NA                  NA  2017
10 메밀,생것~        100   374         74.7    11.5   2.3    NA     14           0             0.59               NA  2011
# ... with 22,619 more rows, and 1 more variable: factory <chr>
```

> **4-3) [**의약외품 제품**](https://www.data.go.kr/dataset/15028967/openapi.do)(quasiDrugs)**
> 
> 식품의약품안전처에서 관리하는 의약외품(quasi-drugs)의 품목명, 용법용량, 효능효과, 사용상의 주의사항 등을 제공합니다. 다운로드되는 데이터의 변수가 많으므로 자세한 사항을 [링크](https://www.data.go.kr/dataset/15028967/openapi.do)의 참고문서로 확인하시기 바랍니다. 함수 실행 결과는 R의 data.frame 타입입니다. 함수에서 사용하는 argument는 다음과 같습니다.
> - key: (필수, 문자). 공공데이터 포털에서 발급받은 API 키
> - vebose: (옵션, T/F) 다운로드의 진행상황의 콘솔 출력여부. 기본값은 False

```
# example
> key <- 'your key'
> data <- nutriComponent(key, verbose = T)
  |==============================================================================================================| 100%
> 
> data
# A tibble: 10,334 x 8
   item_code  item_name    effect          usage              notice          type_code  type_name        firm  
   <chr>      <chr>        <chr>           <chr>              <chr>           <chr>      <chr>            <chr> 
 1 200308392  레이욘부직~  창상 및 수술~   창상 및 수술전후~  보관 및 취급시~ 35000      [35000]기타~     신용코리아~
 2 201602150  니찌반바틀~  붕대, 거즈, 카~ 필요한 길이만큼~   피부발적, 가려~ 33800      [33800]반창고~   (주)나음~
 3 200608013  헤파-알2     진료 또는 치~   제품의 코 편 폴~   없음.           32100      [32100]수술용~   (주)신진~
 4 200608007  헤파-알2~    진료 또는 치~   제품의 코 편 폴~   없음.           32100      [32100]수술용~   (주)신진~
 5 200608014  헤파-알2~    진료 또는 치~   제품의 코 편 폴~   없음.           32100      [32100]수술용~   (주)신진~
 6 200612211  1.쑥건향초~  흡연욕구를 참~  1)담배대용으로~                    45100      [45100]흡연욕구~ (주)한국~
 7 200701636  아이면생리~  생리혈의 위~    1일 수 회 사용~    사용후 변기에~  31100      [31100]생리대~   (주)아이~
 8 200701635  아이면생리~  생리혈의 위~    1일 수 회 사용~    사용후 변기에~  31100      [31100]생리대~   (주)아이~
 9 200701637  아이면생리~  생리혈의 위~    1일 수 회 사용~    사용후 변기에~  31100      [31100]생리대~   (주)아이~
10 200701638  아이면생리~  생리혈의 위~    1일 수 회 사용~    사용후 변기에~  31100      [31100]생리대~   (주)아이~
# ... with 10,324 more rows
```
…
```
# example
> key <- 'your key from data.mafra.go.kr'
> data <- livestockDisease(key, fromDate = as.Date('2019-09-01'), toDate = as.Date('2019-10-29'), verbose = T)
  |==========================================================================================================| 100%
> 
> data
# A tibble: 108 x 12
   occr_no  dizz_name  farm_name farm_code farm_addr  occr_date  occr_n lvst_code lvst_type diag_code diag_name clos_date 
   <chr>    <chr>      <chr>     <chr>     <chr>      <date>      <dbl> <chr>     <chr>     <chr>     <chr>     <date>    
 1 00053833 낭충봉아부패병~ 김정근 윤미자~ 41830395~ 경기도 양평군 지~ 2019-09-02     15 418600    벌-재래종 6412106   경기 동부지소~ NA        
 2 00053834 낭충봉아부패병~ 박동선    41830250~ 경기도 양평군 양~ 2019-09-02      2 418600    벌-재래종 6412106   경기 동부지소~ NA        
 3 00203822 결핵병     한길농장  46830370~ 전라남도 영암군 ~ 2019-09-02      1 412002    소-한우   6430863   충북 중부지소~ NA        
 4 00202950 브루셀라병 세윤농장  42110340~ 강원도 춘천시 남~ 2019-09-03      1 412002    소-한우   6420912   강원 동물위생시~ NA        
 5 00053709 낭충봉아부패병~ 최헌숙    42760330~ 강원도 평창군 대~ 2019-09-03     10 418600    벌-재래종 6420925   강원 중부지소~ NA        
 6 00053710 낭충봉아부패병~ 김영목    42760330~ 강원도 평창군 대~ 2019-09-03      3 418600    벌-재래종 6420925   강원 중부지소~ NA        
 7 00053711 낭충봉아부패병~ 조창길    42760340~ 강원도 평창군 봉~ 2019-09-03      5 418600    벌-재래종 6420925   강원 중부지소~ NA        
 8 00204226 결핵병     양학농장A 46840340~ 전라남도 무안군 ~ 2019-09-04      1 412002    소-한우   6460965   전남 서부지소~ NA        
 9 00202760 결핵병     삼호한우  41670250~ 경기도 여주시 가~ 2019-09-04      1 412002    소-한우   6412106   경기 동부지소~ NA        
10 00204689 결핵병     NA        41590410~ 경기도 화성시 정~ 2019-09-05      2 412004    소-젖소   6412102   경기도 동물위생~ NA        
# ... with 98 more rows
```


> **6-1) [**국회의원 정보**](https://www.data.go.kr/dataset/15012647/openapi.do)(nasCongressman1)**
>
> 국회사무처가 제공하는 간략한 국회의원 정보를 제공합니다. 특정 국회의원의 상세한 정보는 nasCongressman2 함수를 사용하시기 바랍니다. 자세한 사항은 [링크](https://www.data.go.kr/dataset/15012647/openapi.do)의 참고문서로 확인하시기 바랍니다. 함수 실행 결과는 R의 data.frame 타입입니다. 함수에서 사용하는 argument는 다음과 같습니다.
> - key: (필수, 문자). 공공데이터 포털에서 발급받은 API 키


```
# example
> key <- 'your key'
> data <- nasCongressman1(key)
> data
# A tibble: 297 x 8
   code_dept code_numb name_kr name_en        name_ch poto_link                              numb_elec csty                      
   <chr>     <chr>     <chr>   <chr>          <chr>   <chr>                                  <chr>     <chr>                     
 1 9770276   153       강길부  KANG GHILBOO   姜吉夫  http://www.assembly.go.kr/photo/97702~ 4선       울산 울주군               
 2 9770933   2892      강병원  KANG BYUNGWON  姜炳遠  http://www.assembly.go.kr/photo/97709~ 초선      서울 은평구을             
 3 9771036   2927      강석진  KANG SEOGJIN   姜錫振  http://www.assembly.go.kr/photo/97710~ 초선      경남 산청군함양군거창군합천군~
 4 9770512   2788      강석호  KANG SEOKHO    姜碩鎬  http://www.assembly.go.kr/photo/97705~ 3선       경북 영양군영덕군봉화군울진군~
 5 9770279   155       강창일  KANG CHANGIL   姜昌一  http://www.assembly.go.kr/photo/97702~ 4선       제주 제주시갑             
 6 9771054   2852      강효상  KHANG HYOSHANG 姜孝祥  http://www.assembly.go.kr/photo/97710~ 초선      비례대표                  
 7 9771007   2855      강훈식  KANG HOONSIK   姜勳植  http://www.assembly.go.kr/photo/97710~ 초선      충남 아산시을             
 8 9770708   2680      경대수  KYEONG DAESOO  慶大秀  http://www.assembly.go.kr/photo/97707~ 재선      충북 증평군진천군음성군   
 9 9770931   2952      고용진  KOH YONGJIN    고용진  http://www.assembly.go.kr/photo/97709~ 초선      서울 노원구갑             
10 9770961   2862      곽대훈  KWAK DAEHOON   郭大勳  http://www.assembly.go.kr/photo/97709~ 초선      대구 달서구갑             
# ... with 287 more rows
```
…
